QN,A1,A2,A3,A4
0,True,False,True,False
1,False,True,True,True
2,True,True,True,False
m1,True,False,True,False
m2,True,False,False,True
m3,True,False,False,False
m4,True,False,True,False
m6,False,True,False,False
m7,False,False,True,False
