{
  "incorrect_answers": [
    {
      "missed": [],
      "question": "T1"
    },
    {
      "missed": [
        "A3"
      ],
      "question": "T2"
    },
    {
      "missed": [
        "A3"
      ],
      "question": "T3"
    },
    {
      "missed": [],
      "question": "M1"
    },
    {
      "missed": [
        "A1",
        "A2"
      ],
      "question": "M2"
    },
    {
      "missed": [
        "A1",
        "A4"
      ],
      "question": "M3"
    },
    {
      "missed": [
        "A3"
      ],
      "question": "M4"
    },
    {
      "missed": [
        "A2"
      ],
      "question": "M6"
    },
    {
      "missed": [
        "A2",
        "A4"
      ],
      "question": "M7"
    }
  ],
  "percent_correct": [
    1,
    0.75,
    0.75,
    1,
    0.5,
    0.5,
    0.75,
    0.75,
    0.5
  ],
  "respondant": {
    "comments": "no",
    "hpc_experience": "advanced",
    "programming_experience": "intermediate",
    "written": "intermediate"
  }
}
